<?xml version="1.0" encoding="iso-8859-1"?>
<svg xmlns="http://www.w3.org/2000/svg" xmlns:xlink="http://www.w3.org/1999/xlink" x="0px" y="0px" viewBox="0 0 40 40" xml:space="preserve">
	<path d="M20,0C9,0,0,9,0,20s9,20,20,20c11,0,20-9,20-20S31,0,20,0z M15.5,28.2h-4.4V15h4.4V28.2z M13.3,13.2L13.3,13.2
	c-1.5,0-2.5-1-2.5-2.3c0-1.3,1-2.3,2.5-2.3c1.5,0,2.4,1,2.5,2.3C15.7,12.2,14.8,13.2,13.3,13.2z M31.3,28.2h-4.4v-7.1
	c0-1.8-0.6-3-2.2-3c-1.2,0-1.9,0.8-2.3,1.6c-0.1,0.3-0.1,0.7-0.1,1.1v7.4h-4.4c0,0,0.1-12,0-13.2h4.4v1.9c0.6-0.9,1.6-2.2,4-2.2
	c2.9,0,5.1,1.9,5.1,6V28.2z"/>
</svg>